{"name":"GetFailUsers","id":"SerenityInitTests:GetFailUsers","testCaseName":"SerenityInitTests","testSteps":[{"number":1,"description":"Alex executes a GET on the resource /users?page\u003d2","duration":3125,"startTime":"2022-02-24T17:39:37.229-05:00[America/Bogota]","result":"SUCCESS","precondition":false,"level":0,"children":[{"number":2,"description":"GET https://reqres.in/api/users?page\u003d2\r","duration":0,"startTime":"2022-02-24T17:39:40.354-05:00[America/Bogota]","result":"SUCCESS","restQuery":{"method":"GET","path":"https://reqres.in/api/users?page\u003d2\r","content":"\r","contentType":"null","requestHeaders":"Accept\u003d*/*\r","requestCookies":"\r","responseHeaders":"Date: Thu, 24 Feb 2022 22:39:39 GMT\r\nContent-Type: application/json; charset\u003dutf-8\r\nTransfer-Encoding: chunked\r\nConnection: keep-alive\r\nX-Powered-By: Express\r\nAccess-Control-Allow-Origin: *\r\nEtag: W/\"406-ut0vzoCuidvyMf8arZpMpJ6ZRDw\"\r\nVia: 1.1 vegur\r\nCache-Control: max-age\u003d14400\r\nCF-Cache-Status: HIT\r\nAge: 5036\r\nExpect-CT: max-age\u003d604800, report-uri\u003d\"https://report-uri.cloudflare.com/cdn-cgi/beacon/expect-ct\"\r\nReport-To: {\"endpoints\":[{\"url\":\"https:\\/\\/a.nel.cloudflare.com\\/report\\/v3?s\u003dbRPYh5PxaQM7kNuHwDWVuxOLlZPj0UPMOcJUGC%2FZ2Oi3GY%2B05XNJXG37SZh4oGXzTxaaaAYPYFqZKhmW%2BNW1u%2FE9lZPGr7On1R9G5gmRWYkZGhsA5GI%2BjCtgEUE%3D\"}],\"group\":\"cf-nel\",\"max_age\":604800}\r\nNEL: {\"success_fraction\":0,\"report_to\":\"cf-nel\",\"max_age\":604800}\r\nVary: Accept-Encoding\r\nServer: cloudflare\r\nCF-RAY: 6e2c30f148cd21d3-MIA\r\nContent-Encoding: gzip\r\nalt-svc: h3\u003d\":443\"; ma\u003d86400, h3-29\u003d\":443\"; ma\u003d86400\r","responseCookies":"\r","responseBody":"{\n    \"page\": 2,\n    \"per_page\": 6,\n    \"total\": 12,\n    \"total_pages\": 2,\n    \"data\": [\n        {\n            \"id\": 7,\n            \"email\": \"michael.lawson@reqres.in\",\n            \"first_name\": \"Michael\",\n            \"last_name\": \"Lawson\",\n            \"avatar\": \"https://reqres.in/img/faces/7-image.jpg\"\n        },\n        {\n            \"id\": 8,\n            \"email\": \"lindsay.ferguson@reqres.in\",\n            \"first_name\": \"Lindsay\",\n            \"last_name\": \"Ferguson\",\n            \"avatar\": \"https://reqres.in/img/faces/8-image.jpg\"\n        },\n        {\n            \"id\": 9,\n            \"email\": \"tobias.funke@reqres.in\",\n            \"first_name\": \"Tobias\",\n            \"last_name\": \"Funke\",\n            \"avatar\": \"https://reqres.in/img/faces/9-image.jpg\"\n        },\n        {\n            \"id\": 10,\n            \"email\": \"byron.fields@reqres.in\",\n            \"first_name\": \"Byron\",\n            \"last_name\": \"Fields\",\n            \"avatar\": \"https://reqres.in/img/faces/10-image.jpg\"\n        },\n        {\n            \"id\": 11,\n            \"email\": \"george.edwards@reqres.in\",\n            \"first_name\": \"George\",\n            \"last_name\": \"Edwards\",\n            \"avatar\": \"https://reqres.in/img/faces/11-image.jpg\"\n        },\n        {\n            \"id\": 12,\n            \"email\": \"rachel.howell@reqres.in\",\n            \"first_name\": \"Rachel\",\n            \"last_name\": \"Howell\",\n            \"avatar\": \"https://reqres.in/img/faces/12-image.jpg\"\n        }\n    ],\n    \"support\": {\n        \"url\": \"https://reqres.in/#support-heading\",\n        \"text\": \"To keep ReqRes free, contributions towards server costs are appreciated!\"\n    }\n}","statusCode":200},"precondition":false,"level":1}]}],"userStory":{"id":"SerenityInitTests","storyName":"Serenity init tests","storyClassName":"SerenityInitTests","path":"","type":"story"},"featureTag":{"name":"Serenity init tests","type":"story","displayName":"Serenity init tests"},"title":"Get fail users","tags":[{"name":"Serenity init tests","type":"story","displayName":"Serenity init tests"}],"startTime":"2022-02-24T17:39:36.885-05:00[America/Bogota]","duration":3625,"testFailureCause":{"errorType":"org.junit.ComparisonFailure","message":"expected:\u003c[4]00\u003e but was:\u003c[2]00\u003e","stackTrace":[{"declaringClass":"SerenityInitTests","methodName":"GetFailUsers","fileName":"SerenityInitTests.java","lineNumber":32}]},"testFailureClassname":"org.junit.ComparisonFailure","testFailureMessage":"expected:\u003c[4]00\u003e but was:\u003c[2]00\u003e","testFailureSummary":"FAILURE;org.junit.ComparisonFailure;expected:\u003c[4]00\u003e but was:\u003c[2]00\u003e;SerenityInitTests.java","projectKey":"","annotatedResult":"FAILURE","isManualTestingUpToDate":false,"manual":false,"testSource":"JUnit","actors":[{"name":"Alex","can":["call an API at https://reqres.in/api"]}],"order":0,"result":"FAILURE"}